{
    "pagination": {
        "page": 0,
        "rowCount": 5,
        "perPage": 5,
        "totalCount": 10,
        "totalPage": 2,
        "order": "desc",
        "orderBy": "id"
    },
    "searchTerms": {},
    "rows": [
        {
            "id": 2,
            "code": "XH002",
            "companyType": 0,
            "name": "某个客户",
            "shortname": "某司",
            "address": "新会市司前石步墟石桥浸牛潭",
            "retrieveTime": "2018-07-17",
            "retriever_id": 1,
            "retriever_id.userName": "小张",
            "imageLicense_id": "1",
			"imageLicense_id.row": {
				"id":1
				}
        }
    ]
}