{
    "pagination": {
        "page": 0,
        "rowCount": 5,
        "perPage": 5,
        "totalCount": 10,
        "totalPage": 2,
        "order": "desc",
        "orderBy": "id"
    },
    "searchTerms": {},
    "rows": [
        {
            "id": 1,
            "code": "XH001",
            "companyType": 0,
            "name": "江门某公司江门某公司江门某公司江门某公司",
            "shortname": "某司",
            "address": "新会市司前石步墟石桥浸牛潭",
            "retriveTime": "2018-07-17",
            "retriever_id": 1,
            "retriever_id.userName": "小张",
            "imageLicense": "/no"
        }
    ]
}