{
    "pagination": {
        "page": 0,
        "rowCount": 5,
        "perPage": 5,
        "totalCount": 10,
        "totalPage": 2,
        "order": "desc",
        "orderBy": "id"
    },
    "searchTerms": {},
    "rows": [
        {
            "id": 1,
            "name": "港口一",
            "ename": "port one",
            "isDeparture": true,
            "isDestination": false
        },
        {
            "id": 2,
            "name": "港口2",
            "ename": "port one2",
            "isDeparture": true,
            "isDestination": false
        },
        {
            "id": 3,
            "name": "港口3",
            "ename": "port 3one3",
            "isDeparture": true,
            "isDestination": false
        }
    ]
}