{
    "pagination": {
        "page": 0,
        "rowCount": 5,
        "perPage": 5,
        "totalCount": 10,
        "totalPage": 2,
        "order": "desc",
        "orderBy": "id"
    },
    "searchTerms": {},
    "rows": [
        {
            "id": 1,
            "code": "TST1",
            "name": "成品1",
            "ename": "Wine Cooler With Pit Line",
            "shortname": "成品1",
            "eshortname": "Wine Cooler With Pit Line",
            "spec1": "(up)dia18.5/(down)dia14.5*H22.5cm",

            "image_id": "1",
			"image_id.row": {
                "id": 1,
                "name": "某图片",
                "sort": 0,
                "height": 150,
                "width": 100,
                "path": "uploads/001.jpg",
                "thumbnailPath": "uploads/001_thumb.jpg",
                "ext": "jpg",
                "createAt": "2019-12-23",
                "gallary_folder_id": 1,
                "gallary_folder_id.memo": "产品/滚坑冰桶"
				}
        },
        {
            "id": 2,
            "code": "TST2",
            "name": "成品2",
            "ename": "Wine Cooler With Pit Line",
            "shortname": "成品1",
            "eshortname": "Wine Cooler With Pit Line",
            "spec1": "(up)dia18.5/(down)dia14.5*H22.5cm",

            "image_id": "2",
			"image_id.row": {
                "id": 2,
                "name": "某图片",
                "sort": 0,
                "height": 150,
                "width": 100,
                "path": "uploads/002.jpg",
                "thumbnailPath": "uploads/002_thumb.jpg",
                "ext": "jpg",
                "createAt": "2019-12-23",
                "gallary_folder_id": 1,
                "gallary_folder_id.memo": "产品/滚坑冰桶"
				}
        },
        {
            "id": 3,
            "code": "TST3",
            "name": "成品3",
            "ename": "Wine Cooler With Pit Line",
            "shortname": "成品3",
            "eshortname": "Wine Cooler With Pit Line",
            "spec1": "(up)dia18.5/(down)dia14.5*H22.5cm",

            "image_id": "3",
			"image_id.row": {
                "id": 3,
                "name": "某图片",
                "sort": 0,
                "height": 150,
                "width": 100,
                "path": "uploads/003.jpg",
                "thumbnailPath": "uploads/003_thumb.jpg",
                "ext": "jpg",
                "createAt": "2019-12-23",
                "gallary_folder_id": 1,
                "gallary_folder_id.memo": "产品/滚坑冰桶"
				}
        },
        {
            "id": 4,
            "code": "TST4",
            "name": "成品4",
            "ename": "Wine Cooler With Pit Line",
            "shortname": "成品4",
            "eshortname": "Wine Cooler With Pit Line",
            "spec1": "(up)dia18.5/(down)dia14.5*H22.5cm",

            "image_id": "4",
			"image_id.row": {
                "id": 4,
                "name": "某图片",
                "sort": 0,
                "height": 150,
                "width": 100,
                "path": "uploads/004.jpg",
                "thumbnailPath": "uploads/004_thumb.jpg",
                "ext": "jpg",
                "createAt": "2019-12-23",
                "gallary_folder_id": 1,
                "gallary_folder_id.memo": "产品/滚坑冰桶"
				}
        }
    ]
}