{
    "pagination": {
        "page": 0,
        "rowCount": 5,
        "perPage": 5,
        "totalCount": 10,
        "totalPage": 2,
        "order": "desc",
        "orderBy": "id"
    },
    "searchTerms": {},
    "rows": [
        {
            "id": 1,
            "name": "中国",
            "ename": "China",
            "telPrefix": "0086",
            "rank": 0,
            "code": "CHINA001",
            "memo": "",
            "updateAt": "2018-07-17 23:51:22",
            "path": "0",
            "parent_id": 0
        },
        {
            "id": 2,
            "name": "美国",
            "ename": "USA",
            "telPrefix": "001",
            "rank": 0,
            "code": "USA002",
            "memo": "",
            "updateAt": "2018-07-17 23:51:22",
            "path": "0",
            "parent_id": 0
        },
        {
            "id": 3,
            "name": "广东",
            "ename": "Guangdong",
            "telPrefix": "07",
            "rank": 1,
            "code": "",
            "memo": "",
            "updateAt": "2018-07-17 23:51:22",
            "path": "0,1",
            "parent_id": 0
        },
        {
            "id": 4,
            "name": "梅州",
            "ename": "Meizhou",
            "telPrefix": "0753",
            "rank": 3,
            "code": "",
            "memo": "",
            "updateAt": "2018-07-17 23:51:22",
            "path": "0,1,3",
            "parent_id": 0
        },
        {
            "id": 5,
            "name": "河源",
            "ename": "Heyuan",
            "telPrefix": "0762",
            "rank": 3,
            "code": "",
            "memo": "",
            "updateAt": "2018-07-17 23:51:22",
            "path": "0,1,3",
            "parent_id": 0
        }
        ,
        {
            "id": 6,
            "name": "加拿大",
            "ename": "Canada",
            "telPrefix": "001",
            "rank": 0,
            "code": "CND001",
            "memo": "",
            "updateAt": "2018-07-17 23:51:22",
            "path": "0",
            "parent_id": 0
        }     
    ]
}