{
    "pagination": {
        "page": 0,
        "rowCount": 5,
        "perPage": 5,
        "totalCount": 10,
        "totalPage": 2,
        "order": "desc",
        "orderBy": "id"
    },
    "searchTerms": {},
    "rows": [
        {
            "id": 1,
            "commodity_id" : 50,
            "view_commodity_name" : "某商品",
            "view_commodity_code" : "某商品编号",
            "byerCode": "CR8328",
            "amount": 50,
            "view_packAmount_unitType":"50 只/箱",
            "unitPrice": 125.00
        }
    ]
}