{
    "pagination": {
        "page": 0,
        "rowCount": 5,
        "perPage": 5,
        "totalCount": 10,
        "totalPage": 2,
        "order": "desc",
        "orderBy": "id"
    },
    "searchTerms": {},
    "rows": [
        {
            "id": 1,
            "userName": "test1",
            "fullName": "老王",
            "password": "123456",
            "ip": "192.168.0.1",
            "bargainCode": "",
            "lastLogin": "",
            "memo": "测试用户",
            "isActive": true,
            "role_id": 1
        },
        {
            "id": 2,
            "userName": "test2",
            "fullName": "老李",
            "password": "123456",
            "ip": "192.168.0.2",
            "bargainCode": "",
            "lastLogin": "",
            "memo": "测试用户2",
            "isActive": false,
            "role_id": 1
        },
        {
            "id": 3,
            "userName": "test3",
            "fullName": "老骆",
            "password": "123456",
            "ip": "192.168.0.2",
            "bargainCode": "",
            "lastLogin": "",
            "memo": "测试用户2",
            "isActive": false,
            "role_id": 1
        },
        {
            "id": 4,
            "userName": "test3",
            "fullName": "老骆",
            "password": "123456",
            "ip": "192.168.0.2",
            "bargainCode": "",
            "lastLogin": "",
            "memo": "测试用户2",
            "isActive": false,
            "role_id": 1
        },
        {
            "id": 5,
            "userName": "test3",
            "fullName": "范思辙",
            "password": "123456",
            "ip": "192.168.0.2",
            "bargainCode": "",
            "lastLogin": "",
            "memo": "测试用户2",
            "isActive": false,
            "role_id": 1
        }
    ]
}